"","ave","sd","n","sem"
"a",91.4344602376657,7.13685688884686,5,3.19169942982985
"adac",91.7213401016917,5.90226178480882,4,2.95113089240441
"adacneo",69.7341471253675,19.9721802280098,6,8.15360843492115
"aneo",75.4876756191048,6.46070376893472,6,2.63757126886103
"atp",92.7229499234035,6.50308918044318,7,2.45793667501821
"atpgs",94.9546172118533,3.18342447893007,6,1.29962760134401
"atpgsneo",46.5567419428198,10.5692892653917,6,4.31489427401421
"atpneo",52.7750240428955,15.0561934219662,10,4.76118641054579
"atpneo_h",44.8157147648768,8.59665122581552,6,3.50956816665326
"atpneo_l",64.7139879599235,15.4965535845667,4,7.74827679228337
"control",93.8237980106411,4.75661123294065,7,1.79783005796818
"neo",59.836803698192,16.6519396888008,9,5.55064656293362
"ppads",86.6525599960075,14.1977610774256,2,10.0393331355141
"ppadsneo",59.7863803063298,10.1351743320401,2,7.16665049869342
"utp",96.9634227702773,2.16255574592688,6,0.882859686307452
"utpgs",90.7406909505216,8.23415441036891,6,3.36157946144859
"utpgsneo",49.7690788905875,10.7722450186254,7,4.07152591159102
"utpneo",53.8691789537433,17.048386507255,6,6.95997464675406
