Cochlea Number,Section Number,Region,Treatment,IHC.intact,IHC.missing,OHC1.intact,OHC1.missing,OHC2.intact,OHC2.missing,OHC3.intact,OHC3.missing,mech.dmg
N56262,1,,aneo,23,0,28,0,29,0,40,0,0
N56262,2,,aneo,56,0,68,0,70,0,81,0,0
N56262,3,,aneo,87,6,109,2,112,2,127,0,0
N56262,4,,aneo,118,10,143,6,149,4,165,2,0
N56262,5,,aneo,145,13,173,11,180,8,188,14,0
N56262,6,,aneo,173,16,197,23,212,12,203,35,0
N56262,7,,aneo,205,17,223,32,240,20,217,54,0
N56262,8,,aneo,237,18,254,38,270,27,249,62,0
N56262,9,,aneo,273,20,288,45,307,33,280,74,0
N56262,10,,aneo,312,21,325,52,342,42,314,86,0
N56262,11,,aneo,348,26,356,65,370,58,338,102,0
N56262,12,,aneo,375,36,377,87,390,78,369,113,0
N56262,13,,aneo,397,49,399,106,402,105,384,138,0
N56262,14,,aneo,419,64,422,126,414,135,401,161,0
N56262,15,,aneo,435,84,442,145,428,160,422,178,0
N56262,16,,aneo,451,105,458,165,446,179,438,196,10
N56262,17,,aneo,451,105,458,165,446,179,438,196,100
N56262,18,,aneo,451,105,458,165,446,179,438,196,100
N56262,19,,aneo,451,105,458,165,446,179,438,196,100
N56262,20,,aneo,451,105,458,165,446,179,438,196,100
N53162,1,,aneo,15,0,18,0,17,0,26,0,50
N53162,2,,aneo,47,0,59,0,59,0,70,0,0
N53162,3,,aneo,79,3,101,2,102,1,115,0,0
N53162,4,,aneo,109,7,139,2,139,4,157,1,0
N53162,5,,aneo,128,20,163,15,165,16,180,18,0
N53162,6,,aneo,144,38,172,53,179,41,199,41,0
N53162,7,,aneo,167,48,188,76,206,51,216,62,0
N53162,8,,aneo,196,55,207,97,229,70,232,89,0
N53162,9,,aneo,227,59,227,118,256,85,250,114,0
N53162,10,,aneo,262,65,252,140,281,107,277,136,0
N53162,11,,aneo,289,79,282,155,311,125,303,156,0
N53162,12,,aneo,311,95,307,174,332,147,326,178,0
N53162,13,,aneo,338,107,328,196,350,171,339,208,0
N53162,14,,aneo,363,120,341,224,364,198,346,245,0
N53162,15,,aneo,385,135,349,256,366,236,355,276,0
N53162,16,,aneo,406,150,358,286,373,266,363,306,0
N53162,17,,aneo,422,170,375,311,396,285,378,333,0
N53162,18,,aneo,438,189,409,316,428,290,412,338,0
N53162,19,,aneo,450,195,428,316,443,291,433,338,55
N53162,20,,aneo,450,195,428,316,443,291,433,338,100
N53262,1,,aneo,17,1,24,0,21,0,22,1,50
N53262,2,,aneo,44,11,64,0,62,0,68,2,0
N53262,3,,aneo,63,29,102,0,101,0,104,7,5
N53262,4,,aneo,81,45,137,0,135,1,138,10,0
N53262,5,,aneo,106,51,171,1,168,4,176,11,0
N53262,6,,aneo,132,58,203,5,200,9,208,18,0
N53262,7,,aneo,158,67,229,20,233,16,243,28,0
N53262,8,,aneo,180,82,259,31,261,29,281,32,0
N53262,9,,aneo,205,93,280,51,288,44,314,39,0
N53262,10,,aneo,234,101,310,62,314,61,349,51,0
N53262,11,,aneo,260,115,332,82,336,79,382,63,0
N53262,12,,aneo,291,123,353,103,352,107,411,77,0
N53262,13,,aneo,321,130,372,124,366,132,434,96,0
N53262,14,,aneo,354,136,400,139,399,142,474,104,0
N53262,15,,aneo,381,148,433,147,434,150,516,109,0
N53262,16,,aneo,406,159,469,152,473,153,555,111,0
N53262,17,,aneo,415,187,508,152,512,153,598,111,0
N53262,18,,aneo,416,213,546,152,551,153,634,111,0
N53262,19,,aneo,416,213,546,152,551,153,634,111,100
N53262,20,,aneo,416,213,546,152,551,153,634,111,100
N56162,1,,aneo,6,0,9,0,8,0,8,0,70
N56162,2,,aneo,20,0,26,0,23,0,22,1,50
N56162,3,,aneo,44,0,46,1,45,1,38,1,20
N56162,4,,aneo,70,5,81,2,79,3,67,10,0
N56162,5,,aneo,81,5,96,3,92,7,79,13,50
N56162,6,,aneo,89,9,101,13,97,18,80,26,50
N56162,7,,aneo,101,22,118,25,103,32,95,40,0
N56162,8,,aneo,121,29,139,32,119,47,110,53,0
N56162,9,,aneo,144,37,162,40,148,53,133,65,0
N56162,10,,aneo,168,44,183,56,175,59,151,79,0
N56162,11,,aneo,193,52,200,72,191,80,173,96,0
N56162,12,,aneo,202,68,205,89,200,94,192,106,20
N56162,13,,aneo,202,68,205,89,200,94,192,106,100
N56162,14,,aneo,208,78,212,100,206,106,198,119,40
N56162,15,,aneo,208,78,212,100,206,106,198,119,100
N56162,16,,aneo,215,83,225,101,222,106,214,122,50
N56162,17,,aneo,223,92,246,101,242,106,236,122,25
N56162,18,,aneo,237,99,270,101,263,106,257,122,40
N56162,19,,aneo,244,99,278,101,270,107,266,122,75
N56162,20,,aneo,244,99,278,101,270,107,266,122,100
N59162,1,,aneo,16,0,15,0,16,1,22,0,50
N59162,2,,aneo,42,1,47,0,50,1,56,2,0
N59162,3,,aneo,66,7,77,2,81,1,88,2,0
N59162,4,,aneo,97,13,115,4,120,5,127,5,0
N59162,5,,aneo,148,13,167,6,175,6,188,5,0
N59162,6,,aneo,186,13,213,9,216,8,221,6,0
N59162,7,,aneo,198,19,227,14,234,8,234,12,50
N59162,8,,aneo,226,34,250,35,268,17,275,22,0
N59162,9,,aneo,251,42,284,38,295,31,285,39,10
N59162,10,,aneo,281,48,311,48,323,39,305,57,0
N59162,11,,aneo,309,52,336,60,342,58,322,77,0
N59162,12,,aneo,336,54,354,76,354,84,335,103,0
N59162,13,,aneo,366,54,361,105,371,103,352,123,0
N59162,14,,aneo,394,58,376,126,384,128,365,146,0
N59162,15,,aneo,420,66,391,144,393,153,380,164,0
N59162,16,,aneo,441,72,397,161,397,165,382,172,75
N59162,17,,aneo,441,72,397,161,397,165,382,172,100
N59162,18,,aneo,447,72,410,161,410,165,394,172,60
N59162,19,,aneo,451,88,429,161,428,168,410,172,80
N59162,20,,aneo,462,97,443,168,440,174,425,175,50
N59262,1,,aneo,26,2,33,2,34,0,31,3,25
N59262,2,,aneo,52,2,65,2,67,0,67,3,0
N59262,3,,aneo,66,4,81,4,84,4,77,3,50
N59262,4,,aneo,79,7,93,8,99,4,88,7,50
N59262,5,,aneo,93,9,105,17,114,14,107,10,40
N59262,6,,aneo,116,17,133,23,137,24,131,16,10
N59262,7,,aneo,150,18,158,36,165,35,162,23,0
N59262,8,,aneo,172,22,175,43,182,37,186,23,20
N59262,9,,aneo,195,31,199,57,203,57,204,43,0
N59262,10,,aneo,225,36,222,70,224,76,225,58,0
N59262,11,,aneo,249,47,235,93,244,89,240,81,0
N59262,12,,aneo,249,47,235,93,244,89,240,81,100
N59262,13,,aneo,275,53,242,118,253,116,257,103,0
N59262,14,,aneo,282,57,251,126,256,128,261,115,50
N59262,15,,aneo,301,61,256,142,264,146,275,129,30
N59262,16,,aneo,330,66,271,168,274,173,286,157,0
N59262,17,,aneo,349,77,292,188,291,196,299,184,0
N59262,18,,aneo,375,90,317,207,322,206,326,198,0
N59262,19,,aneo,375,90,325,213,334,209,340,200,0
N59262,20,,aneo,379,93,332,215,343,210,344,207,75
