Cochlea Number,Section Number,Region,Treatment,IHC.intact,IHC.missing,OHC1.intact,OHC1.missing,OHC2.intact,OHC2.missing,OHC3.intact,OHC3.missing,mech.dmg
N37212_l,1,,atpneo_l,0,0,16,0,15,2,10,7,50
N37212_l,2,,atpneo_l,13,4,40,5,38,3,32,8,15
N37212_l,3,,atpneo_l,13,4,40,5,38,3,32,8,100
N37212_l,4,,atpneo_l,24,4,50,5,46,3,42,8,50
N37212_l,5,,atpneo_l,41,7,69,7,65,3,55,10,50
N37212_l,6,,atpneo_l,66,8,94,10,93,6,84,13,0
N37212_l,7,,atpneo_l,73,9,102,11,103,7,93,16,75
N37212_l,8,,atpneo_l,84,11,115,12,115,7,117,17,60
N37212_l,9,,atpneo_l,106,11,136,15,140,10,132,21,10
N37212_l,10,,atpneo_l,132,14,160,19,167,16,164,25,0
N37212_l,11,,atpneo_l,155,22,185,27,196,21,193,30,0
N37212_l,12,,atpneo_l,155,22,185,27,196,21,193,30,100
N37212_l,13,,atpneo_l,168,28,199,37,215,28,210,39,20
N37212_l,14,,atpneo_l,182,46,217,54,233,43,232,49,0
N37212_l,15,,atpneo_l,190,66,228,78,245,62,250,64,0
N37212_l,16,,atpneo_l,197,84,237,98,259,76,269,74,0
N37212_l,17,,atpneo_l,221,90,254,116,280,94,281,101,0
N37212_l,18,,atpneo_l,237,100,275,125,295,107,297,113,5
N37212_l,19,,atpneo_l,259,108,307,125,327,108,324,114,15
N37212_l,20,,atpneo_l,259,108,307,125,327,108,324,114,100
N37412_l,1,,atpneo_l,13,2,17,0,12,0,7,0,60
N37412_l,2,,atpneo_l,13,2,17,0,12,0,7,0,100
N37412_l,3,,atpneo_l,32,4,38,2,34,1,30,3,0
N37412_l,4,,atpneo_l,52,4,63,2,58,1,55,3,0
N37412_l,5,,atpneo_l,71,4,84,3,80,2,81,3,5
N37412_l,6,,atpneo_l,71,4,84,3,80,2,81,3,100
N37412_l,7,,atpneo_l,90,4,97,7,95,5,96,7,40
N37412_l,8,,atpneo_l,112,9,119,16,119,13,120,12,0
N37412_l,9,,atpneo_l,137,13,142,21,147,13,142,18,15
N37412_l,10,,atpneo_l,151,17,163,23,168,17,163,20,25
N37412_l,11,,atpneo_l,165,26,181,30,186,23,184,25,10
N37412_l,12,,atpneo_l,178,42,202,40,206,34,205,34,0
N37412_l,13,,atpneo_l,203,51,220,55,224,47,229,41,0
N37412_l,14,,atpneo_l,223,62,237,68,243,59,254,49,0
N37412_l,15,,atpneo_l,248,71,254,86,265,73,282,58,0
N37412_l,16,,atpneo_l,272,78,269,103,276,93,308,67,0
N37412_l,17,,atpneo_l,295,83,291,112,295,99,336,68,0
N37412_l,18,,atpneo_l,309,83,305,114,307,100,344,68,85
N37412_l,19,,atpneo_l,309,83,305,114,307,100,344,68,100
N37412_l,20,,atpneo_l,309,83,305,114,307,100,344,68,100
N48112_l,1,,atpneo_l,17,1,17,0,21,0,21,1,60
N48112_l,2,,atpneo_l,50,2,58,0,61,1,66,1,5
N48112_l,3,,atpneo_l,81,2,94,1,97,4,104,3,0
N48112_l,4,,atpneo_l,94,6,113,2,116,5,132,3,50
N48112_l,5,,atpneo_l,115,17,145,5,140,15,153,8,0
N48112_l,6,,atpneo_l,142,20,173,10,170,20,184,13,0
N48112_l,7,,atpneo_l,166,32,205,17,202,30,223,14,0
N48112_l,8,,atpneo_l,177,48,228,19,221,41,247,23,15
N48112_l,9,,atpneo_l,193,61,256,25,243,52,271,34,0
N48112_l,10,,atpneo_l,204,82,280,37,268,64,298,41,0
N48112_l,11,,atpneo_l,210,111,308,51,299,73,331,52,0
N48112_l,12,,atpneo_l,216,141,336,64,323,92,367,59,0
N48112_l,13,,atpneo_l,235,160,368,75,351,106,386,66,0
N48112_l,14,,atpneo_l,251,188,397,83,384,112,425,71,0
N48112_l,15,,atpneo_l,255,196,406,86,396,113,436,72,65
N48112_l,16,,atpneo_l,255,196,406,86,396,113,436,72,100
N48112_l,17,,atpneo_l,255,196,406,86,396,113,436,72,100
N48112_l,18,,atpneo_l,262,208,421,89,409,113,444,74,85
N48112_l,19,,atpneo_l,262,208,421,89,409,113,444,74,100
N48112_l,20,,atpneo_l,262,208,421,89,409,113,444,74,100
N48412_l,1,,atpneo_l,0,0,0,0,0,0,0,0,100
N48412_l,2,,atpneo_l,7,1,12,0,10,0,10,0,85
N48412_l,3,,atpneo_l,38,1,50,0,48,0,46,2,0
N48412_l,4,,atpneo_l,59,12,84,1,80,3,82,3,0
N48412_l,5,,atpneo_l,73,31,111,5,107,7,111,6,0
N48412_l,6,,atpneo_l,86,53,136,15,135,11,137,12,0
N48412_l,7,,atpneo_l,93,78,157,26,156,20,159,19,0
N48412_l,8,,atpneo_l,102,101,180,39,180,33,186,29,0
N48412_l,9,,atpneo_l,113,121,200,51,203,43,214,38,0
N48412_l,10,,atpneo_l,120,146,220,64,229,52,241,46,0
N48412_l,11,,atpneo_l,134,169,237,79,248,66,259,60,0
N48412_l,12,,atpneo_l,152,188,268,85,272,82,282,78,0
N48412_l,13,,atpneo_l,170,204,293,96,295,98,309,94,0
N48412_l,14,,atpneo_l,185,225,319,109,320,116,342,105,0
N48412_l,15,,atpneo_l,202,247,349,124,360,125,387,115,0
N48412_l,16,,atpneo_l,212,271,374,135,393,132,424,119,0
N48412_l,17,,atpneo_l,227,281,396,137,407,133,442,122,50
N48412_l,18,,atpneo_l,227,281,396,137,407,133,442,122,100
N48412_l,19,,atpneo_l,227,281,396,137,407,133,442,122,100
N48412_l,20,,atpneo_l,227,281,396,137,407,133,442,122,100
