Cochlea Number,Section Number,Region,Treatment,IHC.intact,IHC.missing,OHC1.intact,OHC1.missing,OHC2.intact,OHC2.missing,OHC3.intact,OHC3.missing,mech.dmg
N16301,1,,control,0,0,0,0,0,0,0,0,100
N16301,2,,control,0,0,0,0,0,0,0,0,100
N16301,3,,control,0,0,0,0,0,0,0,0,100
N16301,4,,control,0,0,0,0,0,0,0,0,100
N16301,5,,control,0,0,0,0,0,0,0,0,100
N16301,6,,control,0,0,0,0,0,0,0,0,100
N16301,7,,control,27,1,34,0,35,0,38,0,0
N16301,8,,control,66,1,76,0,77,0,80,0,0
N16301,9,,control,103,1,116,0,118,0,124,0,0
N16301,10,,control,136,2,155,0,156,0,168,0,0
N16301,11,,control,171,3,194,0,197,0,209,0,0
N16301,12,,control,209,3,235,0,239,0,254,0,0
N16301,13,,control,245,3,274,0,278,0,301,0,0
N16301,14,,control,283,3,312,0,316,0,345,0,0
N16301,15,,control,318,3,348,0,353,0,382,0,0
N16301,16,,control,342,13,387,0,393,0,420,0,0
N16301,17,,control,371,20,425,0,432,0,460,0,0
N16301,18,,control,401,23,461,0,468,0,494,1,0
N16301,19,,control,406,26,475,0,481,1,506,3,60
N16301,20,,control,406,26,475,0,481,1,506,3,100
N20301,1,,control,22,1,24,0,20,0,24,0,30
N20301,2,,control,44,2,46,0,39,0,49,0,15
N20301,3,,control,69,4,84,0,77,0,89,0,0
N20301,4,,control,94,6,116,0,115,0,129,0,0
N20301,5,,control,122,9,157,0,152,0,169,0,0
N20301,6,,control,152,10,192,0,188,0,206,0,0
N20301,7,,control,181,13,232,0,227,0,249,0,0
N20301,8,,control,206,17,268,0,263,0,285,0,0
N20301,9,,control,231,18,302,0,299,0,325,0,0
N20301,10,,control,259,19,333,0,330,0,360,0,0
N20301,11,,control,288,21,367,0,364,0,405,0,0
N20301,12,,control,306,29,399,0,396,0,443,0,0
N20301,13,,control,340,29,434,1,431,0,485,0,0
N20301,14,,control,358,39,465,1,461,0,519,1,0
N20301,15,,control,373,56,499,2,495,4,550,5,0
N20301,16,,control,387,72,532,2,528,4,583,5,10
N20301,17,,control,408,76,559,2,554,5,612,5,10
N20301,18,,control,421,82,583,2,577,5,634,5,50
N20301,19,,control,434,83,599,2,593,5,650,5,25
N20301,20,,control,434,83,599,2,593,5,650,5,25
N21301,1,,control,0,0,0,0,0,0,0,0,100
N21301,2,,control,28,0,32,0,33,0,57,0,0
N21301,3,,control,60,0,67,0,65,0,94,0,0
N21301,4,,control,80,0,89,0,87,1,116,0,10
N21301,5,,control,95,0,105,0,103,1,136,0,20
N21301,6,,control,119,0,131,1,129,1,163,1,0
N21301,7,,control,144,0,158,1,159,1,192,1,0
N21301,8,,control,170,0,188,1,191,1,221,1,0
N21301,9,,control,197,0,220,1,223,1,257,2,0
N21301,10,,control,225,0,256,1,260,1,294,2,5
N21301,11,,control,252,0,286,1,293,1,329,2,5
N21301,12,,control,277,0,313,1,318,5,361,2,10
N21301,13,,control,302,0,343,1,345,5,391,2,10
N21301,14,,control,316,0,361,1,363,5,411,3,50
N21301,15,,control,329,1,376,1,379,5,425,3,55
N21301,16,,control,336,5,391,1,394,5,438,3,60
N21301,17,,control,336,5,391,1,394,5,438,3,100
N21301,18,,control,336,5,391,1,394,5,438,3,100
N21301,19,,control,336,5,391,1,394,5,438,3,100
N21301,20,,control,336,5,391,1,394,5,438,3,100
N26101,1,,control,0,0,0,0,0,0,0,0,100
N26101,2,,control,0,0,0,0,0,0,0,0,100
N26101,3,,control,0,0,0,0,0,0,0,0,100
N26101,4,,control,18,1,25,0,25,0,26,0,10
N26101,5,,control,42,2,54,0,54,0,54,0,0
N26101,6,,control,70,2,83,1,86,0,88,0,0
N26101,7,,control,96,2,111,1,114,0,127,0,0
N26101,8,,control,127,2,142,1,146,0,158,2,0
N26101,9,,control,156,2,177,1,183,0,191,8,0
N26101,10,,control,191,2,215,1,221,0,228,8,0
N26101,11,,control,223,3,252,1,259,0,275,8,0
N26101,12,,control,256,3,288,1,298,0,320,8,0
N26101,13,,control,295,3,330,1,340,0,367,8,0
N26101,14,,control,314,24,373,1,384,0,415,8,0
N26101,15,,control,345,25,410,1,422,0,453,8,10
N26101,16,,control,375,27,451,1,465,0,503,8,0
N26101,17,,control,400,28,471,1,485,0,529,8,40
N26101,18,,control,400,28,471,1,485,0,529,8,100
N26101,19,,control,400,28,471,1,485,0,529,8,100
N26101,20,,control,400,28,471,1,485,0,529,8,100
N29101,1,,control,16,1,18,0,22,0,23,0,0
N29101,2,,control,36,1,40,0,43,0,45,0,0
N29101,3,,control,58,1,65,0,68,0,71,0,0
N29101,4,,control,73,1,81,0,86,0,89,0,0
N29101,5,,control,73,1,81,0,86,0,89,0,100
N29101,6,,control,73,1,81,0,86,0,89,0,100
N29101,7,,control,73,1,81,0,86,0,89,0,100
N29101,8,,control,96,1,102,0,108,0,112,0,50
N29101,9,,control,130,1,132,0,147,0,161,0,0
N29101,10,,control,154,1,144,0,158,0,173,0,30
N29101,11,,control,184,1,173,0,186,0,208,0,0
N29101,12,,control,213,1,203,0,217,0,242,0,0
N29101,13,,control,243,1,234,0,250,0,278,0,0
N29101,14,,control,269,1,261,0,277,0,305,0,0
N29101,15,,control,294,1,287,0,303,0,330,0,0
N29101,16,,control,316,1,313,0,327,1,356,1,0
N29101,17,,control,337,3,339,0,353,1,383,1,0
N29101,18,,control,356,6,363,1,379,1,409,1,0
N29101,19,,control,365,24,384,4,399,4,425,9,0
N29101,20,,control,365,24,384,4,399,4,425,9,100
N30101,1,,control,26,0,26,0,29,0,30,1,0
N30101,2,,control,26,0,26,0,29,0,30,1,100
N30101,3,,control,26,0,26,0,29,0,30,1,100
N30101,4,,control,38,0,42,0,46,0,47,1,50
N30101,5,,control,58,0,64,0,68,0,74,1,30
N30101,6,,control,85,1,97,0,102,0,111,2,0
N30101,7,,control,105,1,118,1,117,0,127,2,40
N30101,8,,control,105,1,118,1,117,0,127,2,100
N30101,9,,control,105,1,118,1,117,0,127,2,100
N30101,10,,control,119,1,132,1,133,0,144,3,40
N30101,11,,control,146,2,166,1,170,1,181,3,10
N30101,12,,control,174,2,202,1,210,1,224,3,0
N30101,13,,control,174,2,202,1,210,1,224,3,0
N30101,14,,control,236,2,261,3,272,1,290,3,0
N30101,15,,control,259,3,296,3,306,1,326,4,0
N30101,16,,control,290,3,329,3,339,1,369,5,0
N30101,17,,control,322,5,370,3,379,1,410,5,0
N30101,18,,control,349,12,408,4,421,1,453,5,0
N30101,19,,control,365,12,428,4,438,1,466,5,50
N30101,20,,control,365,12,428,4,438,1,466,5,100
N31201,1,,control,20,3,24,2,26,0,33,1,40
N31201,2,,control,44,3,55,2,62,0,74,1,2
N31201,3,,control,73,3,89,2,97,0,116,1,0
N31201,4,,control,104,3,123,2,131,0,153,1,0
N31201,5,,control,133,4,158,2,167,0,190,1,0
N31201,6,,control,171,4,199,2,211,0,235,1,0
N31201,7,,control,205,5,237,2,249,0,277,1,0
N31201,8,,control,239,5,273,2,285,0,314,1,0
N31201,9,,control,276,6,314,2,328,0,358,1,0
N31201,10,,control,316,6,357,2,374,0,406,1,0
N31201,11,,control,352,7,398,2,418,0,452,2,0
N31201,12,,control,352,7,398,2,418,0,452,2,100
N31201,13,,control,352,7,398,2,418,0,452,2,100
N31201,14,,control,352,7,398,2,418,0,452,2,100
N31201,15,,control,352,7,398,2,418,0,452,2,100
N31201,16,,control,352,7,398,2,418,0,452,2,100
N31201,17,,control,352,7,398,2,418,0,452,2,100
N31201,18,,control,352,7,398,2,418,0,452,2,100
N31201,19,,control,352,7,398,2,418,0,452,2,100
N31201,20,,control,352,7,398,2,418,0,452,2,100
