Cochlea Number,Section Number,Region,Treatment,IHC.intact,IHC.missing,OHC1.intact,OHC1.missing,OHC2.intact,OHC2.missing,OHC3.intact,OHC3.missing,mech.dmg
N30102,1,,neo,27,0,33,0,36,0,47,0,0
N30102,2,,neo,56,0,71,1,73,0,87,0,0
N30102,3,,neo,85,2,110,1,112,0,130,0,0
N30102,4,,neo,120,2,151,2,154,1,174,1,0
N30102,5,,neo,132,6,159,10,167,4,188,2,60
N30102,6,,neo,155,20,166,40,184,26,205,25,0
N30102,7,,neo,160,54,168,77,189,59,225,41,0
N30102,8,,neo,171,68,183,90,200,74,236,55,10
N30102,9,,neo,182,81,198,103,216,85,250,68,15
N30102,10,,neo,187,104,203,125,236,93,265,82,0
N30102,11,,neo,195,125,208,147,251,107,280,95,0
N30102,12,,neo,199,138,208,164,257,118,293,100,30
N30102,13,,neo,199,148,209,173,259,125,301,101,80
N30102,14,,neo,209,163,219,189,271,136,320,109,15
N30102,15,,neo,212,171,226,195,283,138,333,109,60
N30102,16,,neo,215,178,235,198,294,138,348,109,60
N30102,17,,neo,221,213,246,226,323,146,379,113,0
N30102,18,,neo,221,213,246,226,323,146,379,113,100
N30102,19,,neo,221,213,246,226,323,146,379,113,100
N30102,20,,neo,221,213,246,226,323,146,379,113,100
N30202,1,,neo,0,0,0,0,0,0,0,0,100
N30202,2,,neo,16,0,21,0,22,0,24,0,45
N30202,3,,neo,44,1,53,1,54,0,55,0,0
N30202,4,,neo,73,1,84,2,83,2,90,2,10
N30202,5,,neo,89,3,95,3,98,3,104,4,60
N30202,6,,neo,110,11,108,17,115,15,126,13,0
N30202,7,,neo,122,11,111,30,118,25,137,14,55
N30202,8,,neo,122,11,111,30,118,25,137,14,100
N30202,9,,neo,122,11,111,30,118,25,137,14,100
N30202,10,,neo,122,11,111,30,118,25,137,14,100
N30202,11,,neo,149,17,114,62,126,47,154,35,0
N30202,12,,neo,175,27,117,92,131,74,167,57,0
N30202,13,,neo,175,27,117,92,131,74,167,57,100
N30202,14,,neo,175,27,117,92,131,74,167,57,100
N30202,15,,neo,175,27,117,92,131,74,167,57,100
N30202,16,,neo,175,27,117,92,131,74,167,57,100
N30202,17,,neo,175,27,117,92,131,74,167,57,100
N30202,18,,neo,175,27,117,92,131,74,167,57,100
N30202,19,,neo,175,27,117,92,131,74,167,57,100
N30202,20,,neo,175,27,117,92,131,74,167,57,100
N31202,1,,neo,12,0,17,0,14,2,23,0,50
N31202,2,,neo,42,0,56,0,52,3,64,0,0
N31202,3,,neo,65,0,85,0,80,4,95,0,10
N31202,4,,neo,95,1,115,8,117,5,133,1,0
N31202,5,,neo,125,3,133,26,145,11,165,7,0
N31202,6,,neo,156,8,151,42,169,26,195,18,0
N31202,7,,neo,179,17,166,63,191,40,220,32,0
N31202,8,,neo,196,31,183,82,209,60,238,51,0
N31202,9,,neo,221,41,202,101,227,80,261,67,0
N31202,10,,neo,253,48,216,126,242,106,276,93,0
N31202,11,,neo,271,68,230,155,262,124,302,111,0
N31202,12,,neo,272,80,234,165,272,129,310,118,60
N31202,13,,neo,283,86,242,174,282,135,325,121,60
N31202,14,,neo,307,103,257,199,306,150,358,130,0
N31202,15,,neo,326,117,288,205,336,156,394,132,0
N31202,16,,neo,343,140,325,205,373,157,431,133,0
N31202,17,,neo,351,166,362,205,410,158,468,137,5
N31202,18,,neo,351,166,362,205,410,158,468,137,100
N31202,19,,neo,351,166,362,205,410,158,468,137,100
N31202,20,,neo,351,166,362,205,410,158,468,137,100
N48102,1,,neo,0,0,0,0,0,0,0,0,100
N48102,2,,neo,34,2,43,2,50,2,50,6,0
N48102,3,,neo,54,10,74,2,77,6,82,6,0
N48102,4,,neo,67,27,101,4,105,8,112,10,0
N48102,5,,neo,81,44,124,11,130,15,139,20,0
N48102,6,,neo,100,51,143,24,152,23,155,37,0
N48102,7,,neo,123,59,156,46,170,40,166,62,0
N48102,8,,neo,150,62,170,66,196,50,182,84,0
N48102,9,,neo,173,73,185,88,213,69,187,117,0
N48102,10,,neo,196,83,195,113,224,78,201,133,20
N48102,11,,neo,196,83,195,113,224,78,201,133,100
N48102,12,,neo,216,94,205,136,232,105,213,156,0
N48102,13,,neo,240,106,221,156,243,131,221,184,0
N48102,14,,neo,266,112,231,182,249,156,235,203,0
N48102,15,,neo,299,116,242,206,255,175,243,221,40
N48102,16,,neo,330,118,255,227,260,202,252,244,0
N48102,17,,neo,357,122,261,249,266,226,255,270,0
N48102,18,,neo,375,133,269,270,271,249,267,292,0
N48102,19,,neo,394,145,280,289,281,270,280,313,0
N48102,20,,neo,401,156,298,291,298,274,291,322,35
